Silas_Analysis
…
Estimated marginal means korrigiert Missverhältnisse aus unterschiedlich großen Sample-Größen für einzelne Tage. Somit wird jeder/jede Tag/Uhrzeit gleich gewertet. Wie oft jeder einzelne Tag gemessen wurde bzw. im Datensatz vorkommt, ist in der deskriptiven Statistik unter FREQUENCIES zu sehen. Für mehr Infos zum EMM: https://cran.r-project.org/web/packages/emmeans/vignettes/basics.html 

Im folgenden werden Tage und Uhrzeiten nach ihrem mean (also Preis) angeordnet.

## # A tibble: 21 x 6
##    Zeit   Wochentag   mean     se lower upper
##    <chr>  <chr>      <dbl>  <dbl> <dbl> <dbl>
##  1 Morgen Montag      1.10 0.0123  1.08  1.13
##  2 Abend  Montag      1.11 0.0123  1.08  1.13
##  3 Mittag Montag      1.11 0.0123  1.08  1.13
##  4 Morgen Dienstag    1.11 0.0123  1.08  1.13
##  5 Abend  Dienstag    1.11 0.0123  1.09  1.13
##  6 Mittag Dienstag    1.11 0.0123  1.09  1.14
##  7 Morgen Mittwoch    1.12 0.0123  1.09  1.14
##  8 Abend  Mittwoch    1.12 0.0123  1.10  1.14
##  9 Mittag Mittwoch    1.12 0.0123  1.10  1.14
## 10 Morgen Donnerstag  1.13 0.0121  1.10  1.15
## # ... with 11 more rows
…
